<?xml version="1.0" encoding="UTF-8" standalone="no"?>
<!DOCTYPE svg PUBLIC "-//W3C//DTD SVG 1.1//EN" "http://www.w3.org/Graphics/SVG/1.1/DTD/svg11.dtd">
<svg width="100%" height="100%" viewBox="0 0 1465 473" version="1.1" xmlns="http://www.w3.org/2000/svg" xmlns:xlink="http://www.w3.org/1999/xlink" xml:space="preserve" xmlns:serif="http://www.serif.com/" style="fill-rule:evenodd;clip-rule:evenodd;stroke-linejoin:round;stroke-miterlimit:2;">
    <g transform="matrix(1,0,0,1,-507.874,-944.882)">
        <g transform="matrix(1.13434,0,0,1.17006,-402.826,-437.084)">
            <path d="M1448.4,1181.1C1563.34,1181.1 1656.65,1271.57 1656.65,1382.99C1656.65,1494.41 1563.34,1584.88 1448.4,1584.88C1333.47,1584.88 1240.16,1494.41 1240.16,1382.99C1240.16,1271.57 1333.47,1181.1 1448.4,1181.1ZM1448.4,1191.79C1557.25,1191.79 1645.63,1277.46 1645.63,1382.99C1645.63,1488.52 1557.25,1574.19 1448.4,1574.19C1339.55,1574.19 1251.18,1488.52 1251.18,1382.99C1251.18,1277.46 1339.55,1191.79 1448.4,1191.79Z"/>
        </g>
        <path d="M649.606,944.882L507.874,944.882L507.874,1417.32L649.606,1417.32L649.606,944.882ZM637.106,957.382L637.106,1404.82C637.106,1404.82 520.374,1404.82 520.374,1404.82C520.374,1404.82 520.374,957.382 520.374,957.382L637.106,957.382Z"/>
        <g transform="matrix(6.12323e-17,-1,1,6.12323e-17,555.118,1759.84)">
            <path d="M649.606,944.882L507.874,944.882L507.874,1417.32L649.606,1417.32L649.606,944.882ZM637.106,957.382L637.106,1404.82C637.106,1404.82 520.374,1404.82 520.374,1404.82C520.374,1404.82 520.374,1031 520.374,957.382L637.106,957.382Z"/>
        </g>
        <path d="M673.228,944.882L673.228,1417.32L814.961,1417.32L814.961,1086.61C814.961,1008.34 751.505,944.882 673.229,944.882C673.228,944.882 673.228,944.882 673.228,944.882ZM685.728,957.981C751.238,964.268 802.461,1019.46 802.461,1086.61L802.461,1404.82C802.461,1404.82 685.728,1404.82 685.728,1404.82L685.728,957.981Z"/>
        <g transform="matrix(1,0,0,1,165.354,1.07005e-05)">
            <path d="M673.228,944.882L673.228,1417.32L814.961,1417.32L814.961,1086.61C814.961,1008.34 751.505,944.882 673.229,944.882C673.228,944.882 673.228,944.882 673.228,944.882ZM685.728,957.981C751.238,964.268 802.461,1019.46 802.461,1086.61C802.461,1086.63 802.461,1086.64 802.461,1086.66C802.461,1086.61 802.461,1404.82 802.461,1404.82C802.461,1404.82 685.728,1404.82 685.728,1404.82L685.728,957.981Z"/>
        </g>
        <g transform="matrix(6.12323e-17,-1,1,6.12323e-17,555.118,1759.84)">
            <path d="M673.228,944.882L673.228,1417.32L814.961,1417.32L814.961,1086.61C814.961,1008.34 751.505,944.882 673.229,944.882C673.228,944.882 673.228,944.882 673.228,944.882ZM685.728,957.981C751.238,964.268 802.461,1019.46 802.461,1086.61L802.461,1404.82C802.461,1404.82 685.728,1404.82 685.728,1404.82L685.728,957.981Z"/>
        </g>
        <g transform="matrix(-6.12323e-17,1,-1,-6.12323e-17,2917.32,602.362)">
            <path d="M673.228,944.882L673.228,1417.32L814.961,1417.32L814.961,1086.61C814.961,1008.34 751.505,944.882 673.229,944.882C673.228,944.882 673.228,944.882 673.228,944.882ZM685.728,957.981C751.238,964.268 802.461,1019.46 802.461,1086.61C802.461,1086.64 802.461,1086.66 802.461,1086.68C802.461,1086.61 802.461,1404.82 802.461,1404.82C802.461,1404.82 685.728,1404.82 685.728,1404.82L685.728,957.981Z"/>
        </g>
        <g transform="matrix(3.63445,0,0,3.63445,-1636.85,-4602.53)">
            <g transform="matrix(50,0,0,50,735.418,1612.49)">
                <path d="M0.249,-0.484C0.27,-0.49 0.291,-0.493 0.31,-0.493C0.365,-0.493 0.414,-0.471 0.455,-0.427C0.496,-0.383 0.517,-0.33 0.517,-0.267C0.517,-0.204 0.495,-0.151 0.45,-0.108C0.405,-0.064 0.351,-0.042 0.286,-0.042C0.221,-0.042 0.167,-0.064 0.125,-0.108C0.082,-0.152 0.06,-0.206 0.06,-0.269C0.06,-0.3 0.066,-0.331 0.078,-0.364C0.09,-0.396 0.112,-0.435 0.143,-0.482L0.365,-0.813L0.437,-0.768L0.249,-0.484ZM0.288,-0.126C0.327,-0.126 0.361,-0.14 0.39,-0.168C0.418,-0.196 0.432,-0.23 0.432,-0.27C0.432,-0.31 0.418,-0.344 0.39,-0.372C0.362,-0.4 0.328,-0.414 0.288,-0.414C0.248,-0.414 0.214,-0.4 0.186,-0.372C0.158,-0.344 0.144,-0.31 0.144,-0.27C0.144,-0.23 0.158,-0.196 0.187,-0.168C0.215,-0.14 0.249,-0.126 0.288,-0.126Z" style="fill-rule:nonzero;"/>
            </g>
            <g transform="matrix(50,0,0,50,763.118,1612.49)">
                <path d="M0.499,-0.71L0.242,-0.71L0.209,-0.531C0.238,-0.538 0.265,-0.542 0.29,-0.542C0.355,-0.542 0.409,-0.519 0.452,-0.474C0.495,-0.428 0.517,-0.37 0.517,-0.299C0.517,-0.228 0.494,-0.168 0.447,-0.118C0.4,-0.067 0.338,-0.042 0.26,-0.042C0.2,-0.042 0.149,-0.06 0.108,-0.097C0.067,-0.134 0.042,-0.184 0.033,-0.248L0.12,-0.248C0.129,-0.208 0.146,-0.177 0.173,-0.156C0.2,-0.135 0.23,-0.124 0.264,-0.124C0.309,-0.124 0.348,-0.141 0.381,-0.176C0.414,-0.21 0.43,-0.252 0.43,-0.303C0.43,-0.348 0.416,-0.386 0.388,-0.415C0.359,-0.444 0.321,-0.459 0.273,-0.459C0.225,-0.459 0.169,-0.445 0.105,-0.418L0.175,-0.792L0.499,-0.792L0.499,-0.71Z" style="fill-rule:nonzero;"/>
            </g>
            <g transform="matrix(50,0,0,50,790.818,1612.49)">
                <path d="M0.273,-0.81C0.352,-0.81 0.414,-0.777 0.46,-0.711C0.506,-0.644 0.529,-0.549 0.529,-0.426C0.529,-0.302 0.506,-0.207 0.459,-0.141C0.412,-0.075 0.35,-0.042 0.272,-0.042C0.193,-0.042 0.132,-0.075 0.09,-0.14C0.047,-0.205 0.025,-0.3 0.025,-0.427C0.025,-0.553 0.047,-0.648 0.09,-0.713C0.132,-0.778 0.194,-0.81 0.273,-0.81ZM0.275,-0.121C0.33,-0.121 0.372,-0.148 0.403,-0.201C0.433,-0.254 0.448,-0.329 0.448,-0.426C0.448,-0.523 0.432,-0.598 0.401,-0.65C0.37,-0.702 0.327,-0.728 0.275,-0.728C0.222,-0.728 0.18,-0.702 0.151,-0.65C0.122,-0.598 0.107,-0.523 0.107,-0.424C0.107,-0.222 0.163,-0.121 0.275,-0.121Z" style="fill-rule:nonzero;"/>
            </g>
            <g transform="matrix(50,0,0,50,818.518,1612.49)">
                <path d="M0.525,-0.06L0.014,-0.06L0.299,-0.368C0.347,-0.419 0.381,-0.459 0.401,-0.488C0.421,-0.517 0.431,-0.551 0.431,-0.588C0.431,-0.625 0.417,-0.658 0.388,-0.686C0.359,-0.714 0.323,-0.728 0.28,-0.728C0.237,-0.728 0.201,-0.713 0.172,-0.683C0.143,-0.652 0.127,-0.609 0.123,-0.553L0.04,-0.553C0.043,-0.632 0.068,-0.694 0.115,-0.741C0.162,-0.787 0.218,-0.81 0.285,-0.81C0.351,-0.81 0.406,-0.789 0.45,-0.746C0.493,-0.703 0.515,-0.65 0.515,-0.588C0.515,-0.543 0.503,-0.5 0.479,-0.461C0.455,-0.422 0.419,-0.376 0.37,-0.324L0.202,-0.143L0.525,-0.143L0.525,-0.06Z" style="fill-rule:nonzero;"/>
            </g>
        </g>
    </g>
</svg>
